…
### 6.1 Shooting Distance - dplyr table

``` r
distance_percentage <- data %>% group_by(shot_distance) %>% summarise(total = length(shot_made_flag), made = length(shot_made_flag[shot_made_flag == "made_shot"]), made_shot_prop = made / total) %>% select(shot_distance, made_shot_prop) %>% arrange(shot_distance)
distance_percentage
```

    ## # A tibble: 56 x 2
    ##    shot_distance made_shot_prop
    ##            <int>          <dbl>
    ##  1             0          0.841
    ##  2             1          0.668
    ##  3             2          0.534
    ##  4             3          0.373
    ##  5             4          0.411
    ##  6             5          0.286
    ##  7             6          0.396
    ##  8             7          0.395
    ##  9             8          0.463
    ## 10             9          0.321
    ## # ... with 46 more rows
…
